{
  "全局参数": {
    "请求间隔": 15,
    "cookie": "CURRENT_BLACKGAP=0; CURRENT_FNVAL=4048; CURRENT_QUALITY=80; DedeUserID=382672135; DedeUserID__ckMd5=612c875dfe9e7cea; PVID=1; _uuid=C110DDB95-87BC-EBE4-5212-BAEB658CCAA207300infoc; b_lsid=8AF102AB8_1842BD564C0; b_nut=1655967109; b_ut=5; bili_jct=2671536657dd72f6276ca2c79a43afca; blackside_state=1; bp_video_offset_382672135=716018860002639900; buvid3=4359C8D9-D0D8-6752-1832-0DA3BEB7875109944infoc; buvid4=8359DF62-5838-BA59-0030-30719E5DED5936514-022040110-8gX9AwANAuyEPJyYBdoJGw%3D%3D; buvid_fp=1f4ddbeb07503898bfd354f7447cc0e9; buvid_fp_plain=undefined; fingerprint=1f4ddbeb07503898bfd354f7447cc0e9; fingerprint3=f94419595e489abce9e049816c854cc2; hit-dyn-v2=1; i-wanna-go-back=-1; innersign=0; is-2022-channel=1; nostalgia_conf=-1; rpdid=|(um|mmuYkmR0J'uYY|u|~YmR; sid=78k9hpeo",
    "根目录": "/home/ubuntu/2T/space/资源体系/视频文件/流媒体平台/B站",
    "请求头": {
      "User-Agent": "Mozilla/5.0 (Macintosh; Intel Mac OS X 10_15_7) AppleWebKit/537.36 (KHTML, like Gecko) Chrome/106.0.0.0 Safari/537.36"
    },
    "重试次数": 10,
    "允许下载的最大时长": 900,
    "网络代理": {
      "是否启用": false,
      "代理池": [
        "http://120.197.219.82:9091",
        "http://223.96.90.216:8085",
        "http://183.247.221.119:30001",
        "http://120.196.188.21:9091",
        "http://183.239.62.59:9091",
        "http://15.165.216.215:80",
        "http://221.181.238.59:9091",
        "http://185.122.201.243:80",
        "http://47.107.150.251:80",
        "http://206.214.211.166:80",
        "http://202.51.112.38:8080",
        "http://183.249.7.226:9091",
        "http://167.86.67.67:80",
        "http://157.100.53.100:999",
        "http://183.233.169.226:9091",
        "http://120.237.144.57:9091",
        "http://164.132.112.237:80"
      ]
    },
    "默认视频格式": "未知"
  },
  "收藏夹": {
    "伏烯": {
      "用户唯一编码": 382672135,
      "列表": {
        "默认收藏夹": {
          "收藏夹唯一编码": 248159335,
          "用户唯一编码": 382672135,
          "名称": "默认收藏夹",
          "视频数量": 259,
          "允许下载的最大时长": "不限"
        },
        "关于我国九年义务教育的课外延伸知识普及": {
          "收藏夹唯一编码": 1769446135,
          "用户唯一编码": 382672135,
          "名称": "关于我国九年义务教育的课外延伸知识普及",
          "视频数量": 344,
          "允许下载的最大时长": "不限"
        },
        "关于我军国防现代化建设历程及成果的汇总报告": {
          "收藏夹唯一编码": 1768363235,
          "用户唯一编码": 382672135,
          "名称": "关于我军国防现代化建设历程及成果的汇总报告",
          "视频数量": 717,
          "允许下载的最大时长": "不限"
        },
        "关于我国大熊猫的生存环境及国际地位变化的持续性观察研究": {
          "收藏夹唯一编码": 1767034735,
          "用户唯一编码": 382672135,
          "名称": "关于我国大熊猫的生存环境及国际地位变化的持续性观察研究",
          "视频数量": 1000,
          "允许下载的最大时长": "不限"
        },
        "关于地球生物多样性及各物种行为模式研究分析": {
          "收藏夹唯一编码": 1766846335,
          "用户唯一编码": 382672135,
          "名称": "关于地球生物多样性及各物种行为模式研究分析",
          "视频数量": 1000,
          "允许下载的最大时长": "不限"
        },
        "关于电影产业优秀成果及周边二次创作成品的赏析与借鉴": {
          "收藏夹唯一编码": 1766809935,
          "用户唯一编码": 382672135,
          "名称": "关于电影产业优秀成果及周边二次创作成品的赏析与借鉴",
          "视频数量": 1000,
          "允许下载的最大时长": "不限"
        },
        "关于地球少数人群生活现状的观察与思考": {
          "收藏夹唯一编码": 1766804335,
          "用户唯一编码": 382672135,
          "名称": "关于地球少数人群生活现状的观察与思考",
          "视频数量": 887,
          "允许下载的最大时长": "不限"
        },
        "关于量子力学领域中时间静止状态的捕获与保存方法的实践应用案例": {
          "收藏夹唯一编码": 1766698835,
          "用户唯一编码": 382672135,
          "名称": "关于量子力学领域中时间静止状态的捕获与保存方法的实践应用案例",
          "视频数量": 117,
          "允许下载的最大时长": "不限"
        },
        "关于心理学领域正面情绪的产生与传播媒介的研究与实践分析": {
          "收藏夹唯一编码": 1750817335,
          "用户唯一编码": 382672135,
          "名称": "关于心理学领域正面情绪的产生与传播媒介的研究与实践分析",
          "视频数量": 998,
          "允许下载的最大时长": "不限"
        },
        "关于社会历史发展与电影产业发展相融合的研究报告": {
          "收藏夹唯一编码": 807783635,
          "用户唯一编码": 382672135,
          "名称": "关于社会历史发展与电影产业发展相融合的研究报告",
          "视频数量": 157,
          "允许下载的最大时长": "不限"
        },
        "关于人类生活方式多样性的观察研究": {
          "收藏夹唯一编码": 1769277135,
          "用户唯一编码": 382672135,
          "名称": "关于人类生活方式多样性的观察研究",
          "视频数量": 999,
          "允许下载的最大时长": "不限"
        },
        "关于时代知名人士的相关介绍": {
          "收藏夹唯一编码": 1767888435,
          "用户唯一编码": 382672135,
          "名称": "关于时代知名人士的相关介绍",
          "视频数量": 118,
          "允许下载的最大时长": "不限"
        },
        "关于舌尖上的中国差点推荐系列整理": {
          "收藏夹唯一编码": 1783467235,
          "用户唯一编码": 382672135,
          "名称": "关于舌尖上的中国差点推荐系列整理",
          "视频数量": 71,
          "允许下载的最大时长": "不限"
        },
        "关于社会各行业运转流程研究调查": {
          "收藏夹唯一编码": 1789376335,
          "用户唯一编码": 382672135,
          "名称": "关于社会各行业运转流程研究调查",
          "视频数量": 117,
          "允许下载的最大时长": "不限"
        },
        "关于我国传统曲艺的传承与发展": {
          "收藏夹唯一编码": 1801644235,
          "用户唯一编码": 382672135,
          "名称": "关于我国传统曲艺的传承与发展",
          "视频数量": 18,
          "允许下载的最大时长": "不限"
        },
        "关于世界各时代流行音乐文化的发展与变迁": {
          "收藏夹唯一编码": 1795277935,
          "用户唯一编码": 382672135,
          "名称": "关于世界各时代流行音乐文化的发展与变迁",
          "视频数量": 116,
          "允许下载的最大时长": "不限"
        },
        "关于历史发展过程中重要节点相关描述记录": {
          "收藏夹唯一编码": 1805404435,
          "用户唯一编码": 382672135,
          "名称": "关于历史发展过程中重要节点相关描述记录",
          "视频数量": 196,
          "允许下载的最大时长": "不限"
        },
        "关于人类交通出行方式多样性的收集与思考": {
          "收藏夹唯一编码": 1830856235,
          "用户唯一编码": 382672135,
          "名称": "关于人类交通出行方式多样性的收集与思考",
          "视频数量": 825,
          "允许下载的最大时长": "不限"
        },
        "关于人类生活方式多样性观察第二季": {
          "收藏夹唯一编码": 1833557435,
          "用户唯一编码": 382672135,
          "名称": "关于人类生活方式多样性观察第二季",
          "视频数量": 1000,
          "允许下载的最大时长": "不限"
        },
        "关于地球生物多样性及行为模式二期研究": {
          "收藏夹唯一编码": 1876196435,
          "用户唯一编码": 382672135,
          "名称": "关于地球生物多样性及行为模式二期研究",
          "视频数量": 1000,
          "允许下载的最大时长": "不限"
        },
        "关于人类生活方式多样性三期观察": {
          "收藏夹唯一编码": 2007989335,
          "用户唯一编码": 382672135,
          "名称": "关于人类生活方式多样性三期观察",
          "视频数量": 1000,
          "允许下载的最大时长": "不限"
        },
        "关于心理学正面情绪的产生与传播二期研究": {
          "收藏夹唯一编码": 2011377735,
          "用户唯一编码": 382672135,
          "名称": "关于心理学正面情绪的产生与传播二期研究",
          "视频数量": 1000,
          "允许下载的最大时长": "不限"
        },
        "关于人类生活方式多样性五期观察": {
          "收藏夹唯一编码": 2197536935,
          "用户唯一编码": 382672135,
          "名称": "关于人类生活方式多样性五期观察",
          "视频数量": 1000,
          "允许下载的最大时长": "不限"
        },
        "关于春晚但不仅限于春晚的优秀作品合集": {
          "收藏夹唯一编码": 2061212735,
          "用户唯一编码": 382672135,
          "名称": "关于春晚但不仅限于春晚的优秀作品合集",
          "视频数量": 142,
          "允许下载的最大时长": "不限"
        },
        "关于心理学正面情绪的产生与传播三期研究": {
          "收藏夹唯一编码": 2228326635,
          "用户唯一编码": 382672135,
          "名称": "关于心理学正面情绪的产生与传播三期研究",
          "视频数量": 1000,
          "允许下载的最大时长": "不限"
        },
        "关于地球生物多样性及行为模式三期研究": {
          "收藏夹唯一编码": 2219885135,
          "用户唯一编码": 382672135,
          "名称": "关于地球生物多样性及行为模式三期研究",
          "视频数量": 785,
          "允许下载的最大时长": "不限"
        },
        "关于人类生活方式多样性六期观察": {
          "收藏夹唯一编码": 2220371035,
          "用户唯一编码": 382672135,
          "名称": "关于人类生活方式多样性六期观察",
          "视频数量": 1000,
          "允许下载的最大时长": "不限"
        },
        "关于心理学正面情绪的产生与传播五期研究": {
          "收藏夹唯一编码": 2245897535,
          "用户唯一编码": 382672135,
          "名称": "关于心理学正面情绪的产生与传播五期研究",
          "视频数量": 612,
          "允许下载的最大时长": "不限"
        },
        "关于电影产业优秀成果及二次创作二期研究": {
          "收藏夹唯一编码": 2345181835,
          "用户唯一编码": 382672135,
          "名称": "关于电影产业优秀成果及二次创作二期研究",
          "视频数量": 364,
          "允许下载的最大时长": "不限"
        },
        "关于人类生活方式多样性七期观察": {
          "收藏夹唯一编码": 2327715935,
          "用户唯一编码": 382672135,
          "名称": "关于人类生活方式多样性七期观察",
          "视频数量": 484,
          "允许下载的最大时长": "不限"
        },
        "关于个人可持续发展行业可行性研究报告": {
          "收藏夹唯一编码": 2546677835,
          "用户唯一编码": 382672135,
          "名称": "关于个人可持续发展行业可行性研究报告",
          "视频数量": 5,
          "允许下载的最大时长": "不限"
        },
        "关于心理学正面情绪的产生与传播六期研究": {
          "收藏夹唯一编码": 2531711235,
          "用户唯一编码": 382672135,
          "名称": "关于心理学正面情绪的产生与传播六期研究",
          "视频数量": 57,
          "允许下载的最大时长": "不限"
        },
        "关于农业现代化机械发展观察": {
          "收藏夹唯一编码": 2508722635,
          "用户唯一编码": 382672135,
          "名称": "关于农业现代化机械发展观察",
          "视频数量": 6,
          "允许下载的最大时长": "不限"
        },
        "关于我国大熊猫的生存环境二期研究": {
          "收藏夹唯一编码": 2515172935,
          "用户唯一编码": 382672135,
          "名称": "关于我国大熊猫的生存环境二期研究",
          "视频数量": 9,
          "允许下载的最大时长": "不限"
        }
      }
    }
  },
  "投稿视频": {
    "大天搞笑配音": {
      "用户名": "大天搞笑配音",
      "用户唯一编码": "138894648"
    },
    "植物椿": {
      "用户名": "植物椿",
      "用户唯一编码": "13199099"
    },
    "纸条App": {
      "用户名": "纸条App",
      "用户唯一编码": "236602327"
    },
    "人类行为图鉴V": {
      "用户名": "人类行为图鉴V",
      "用户唯一编码": "535019206"
    },
    "倒悬的橘子": {
      "用户名": "倒悬的橘子",
      "用户唯一编码": "40966108"
    },
    "iPanda熊猫频道": {
      "用户名": "iPanda熊猫频道",
      "用户唯一编码": "1998535"
    },
    "银行螺丝钉V": {
      "用户名": "银行螺丝钉V",
      "用户唯一编码": "20763555"
    },
    "猫猫村长": {
      "用户名": "猫猫村长",
      "用户唯一编码": "4397552"
    },
    "文字铺": {
      "用户名": "文字铺",
      "用户唯一编码": "181508854"
    },
    "复利的奇迹ETF基金理财": {
      "用户名": "复利的奇迹ETF基金理财",
      "用户唯一编码": "383587023"
    },
    "TED精彩演讲": {
      "用户名": "TED精彩演讲",
      "用户唯一编码": "524041910"
    },
    "十五喵金融": {
      "用户名": "十五喵金融",
      "用户唯一编码": "474849572"
    },
    "锦书致南辞": {
      "用户名": "锦书致南辞",
      "用户唯一编码": "90142376"
    },
    "妈见打": {
      "用户名": "妈见打",
      "用户唯一编码": "562770406"
    },
    "米国脱口秀": {
      "用户名": "米国脱口秀",
      "用户唯一编码": "142371069"
    },
    "MBA与EMBA": {
      "用户名": "MBA与EMBA",
      "用户唯一编码": "627584967"
    },
    "塔哥FRM": {
      "用户名": "塔哥FRM",
      "用户唯一编码": "1159020889"
    },
    "央视纪录": {
      "用户名": "央视纪录",
      "用户唯一编码": "72209046"
    },
    "三十六氪": {
      "用户名": "36氪",
      "用户唯一编码": "90183256"
    },
    "LShang001": {
      "用户名": "LShang001",
      "用户唯一编码": "13765857"
    },
    "Youtube工程视界": {
      "用户名": "Youtube工程视界",
      "用户唯一编码": "110752617"
    },
    "哔哩哔哩放映员": {
      "用户名": "哔哩哔哩放映员",
      "用户唯一编码": "207539637",
      "允许下载的最大时长": "不限"
    },
    "四川观察": {
      "用户名": "四川观察",
      "用户唯一编码": "487614876",
      "允许下载的最大时长": "不限"
    },
    "爱思考的老梨": {
      "用户名": "爱思考的老梨",
      "用户唯一编码": "545194898",
      "允许下载的最大时长": "不限"
    },
    "一条视频": {
      "用户名": "一条视频",
      "用户唯一编码": "4543111",
      "允许下载的最大时长": "不限"
    },
    "电影冷知识": {
      "用户名": "电影冷知识",
      "用户唯一编码": "145750219",
      "允许下载的最大时长": "不限"
    },
    "翻车帝Camera": {
      "用户名": "翻车帝Camera",
      "用户唯一编码": "507318081",
      "允许下载的最大时长": "不限"
    },
    "老四的快乐生活": {
      "用户名": "老四的快乐生活",
      "用户唯一编码": "478908296",
      "允许下载的最大时长": "不限"
    },
    "正说清代十二朝": {
      "用户名": "正说清代十二朝",
      "用户唯一编码": "1457639978",
      "允许下载的最大时长": "不限"
    },
    "十四毅": {
      "用户名": "十四毅",
      "用户唯一编码": "107762251",
      "允许下载的最大时长": "不限"
    },
    "熊Boss先生": {
      "用户名": "熊Boss先生",
      "用户唯一编码": "661142243",
      "允许下载的最大时长": "不限"
    },
    "耶叔壹个人吃饭": {
      "用户名": "耶叔壹个人吃饭",
      "用户唯一编码": "3493082951583945",
      "允许下载的最大时长": "不限"
    },
    "刘嘉麒院士": {
      "用户名": "刘嘉麒院士",
      "用户唯一编码": "1031244859",
      "允许下载的最大时长": "不限"
    },
    "三喜爷爷": {
      "用户名": "三喜爷爷",
      "用户唯一编码": "1513533451",
      "允许下载的最大时长": "不限"
    },
    "大象放映室": {
      "用户名": "大象放映室",
      "用户唯一编码": "49246269",
      "允许下载的最大时长": "不限"
    }
  }
}