{
  "993049427": {
    "cid": "1042271549",
    "bvid": "BV12x4y1K7NQ",
    "链接": "https://www.bilibili.com/video/BV12x4y1K7NQ",
    "标题": "【3D动画】5分钟看懂航空发动机工作原理！",
    "持续时长": 264,
    "作者": "工程视界",
    "作者唯一编码": 110752617,
    "发布时间": {
      "数字": 1678419000,
      "字符串": "2023-03-10 11:30:00 +0800"
    },
    "文件后缀": "mp4",
    "标签": {
      "本地路径": [
        "投稿视频",
        "Youtube工程视界",
        "2023"
      ]
    },
    "aid": "993049427",
    "文件名": "【3D动画】5分钟看懂航空发动机工作原理！"
  },
  "908093821": {
    "cid": "1040967384",
    "bvid": "BV1LM4y1k7Em",
    "链接": "https://www.bilibili.com/video/BV1LM4y1k7Em",
    "标题": "【3D动画】离合器的结构和工作原理",
    "持续时长": 173,
    "作者": "工程视界",
    "作者唯一编码": 110752617,
    "发布时间": {
      "数字": 1678066500,
      "字符串": "2023-03-06 09:35:00 +0800"
    },
    "文件后缀": "mp4",
    "标签": {
      "本地路径": [
        "投稿视频",
        "Youtube工程视界",
        "2023"
      ]
    },
    "aid": "908093821",
    "文件名": "【3D动画】离合器的结构和工作原理"
  },
  "559281328": {
    "cid": "869824300",
    "bvid": "BV1Qe4y1m7T2",
    "链接": "https://www.bilibili.com/video/BV1Qe4y1m7T2",
    "标题": "【3D动画】风力发电机是如何工作的？",
    "持续时长": 221,
    "作者": "工程视界",
    "作者唯一编码": 110752617,
    "发布时间": {
      "数字": 1666782120,
      "字符串": "2022-10-26 19:02:00 +0800"
    },
    "文件后缀": "mp4",
    "标签": {
      "本地路径": [
        "投稿视频",
        "Youtube工程视界",
        "2022"
      ]
    },
    "aid": "559281328",
    "文件名": "【3D动画】风力发电机是如何工作的？"
  },
  "219276429": {
    "cid": "869616334",
    "bvid": "BV1V8411e7mh",
    "链接": "https://www.bilibili.com/video/BV1V8411e7mh",
    "标题": "【3D动画】3分钟看懂超音速巡航导弹是怎么工作的",
    "持续时长": 208,
    "作者": "工程视界",
    "作者唯一编码": 110752617,
    "发布时间": {
      "数字": 1666508618,
      "字符串": "2022-10-23 15:03:38 +0800"
    },
    "文件后缀": "mp4",
    "标签": {
      "本地路径": [
        "投稿视频",
        "Youtube工程视界",
        "2022"
      ]
    },
    "aid": "219276429",
    "文件名": "【3D动画】3分钟看懂超音速巡航导弹是怎么工作的"
  },
  "558503511": {
    "cid": "846977339",
    "bvid": "BV1ne4y1r7S1",
    "链接": "https://www.bilibili.com/video/BV1ne4y1r7S1",
    "标题": "【动画演示】3分钟看懂飞机防雨系统（双语字幕）",
    "持续时长": 190,
    "作者": "Youtube工程视界",
    "作者唯一编码": 110752617,
    "发布时间": {
      "数字": 1665573300,
      "字符串": "2022-10-12 19:15:00 +0800"
    },
    "文件后缀": "flv",
    "标签": {
      "本地路径": [
        "投稿视频",
        "Youtube工程视界",
        "2022"
      ]
    },
    "aid": "558503511",
    "文件名": "【动画演示】3分钟看懂飞机防雨系统（双语字幕）"
  },
  "558520505": {
    "cid": "846571462",
    "bvid": "BV1Le4y1r78P",
    "链接": "https://www.bilibili.com/video/BV1Le4y1r78P",
    "标题": "5分钟看懂太阳能板的工作原理（双语字幕）",
    "持续时长": 285,
    "作者": "Youtube工程视界",
    "作者唯一编码": 110752617,
    "发布时间": {
      "数字": 1665400740,
      "字符串": "2022-10-10 19:19:00 +0800"
    },
    "文件后缀": "flv",
    "标签": {
      "本地路径": [
        "投稿视频",
        "Youtube工程视界",
        "2022"
      ]
    },
    "aid": "558520505",
    "文件名": "5分钟看懂太阳能板的工作原理（双语字幕）"
  },
  "561457809": {
    "cid": "857093857",
    "bvid": "BV16e4y1q7xn",
    "链接": "https://www.bilibili.com/video/BV16e4y1q7xn",
    "标题": "【机构动画】夹持器/机器人抓手",
    "持续时长": 71,
    "作者": "Youtube工程视界",
    "作者唯一编码": 110752617,
    "发布时间": {
      "数字": 1665320965,
      "字符串": "2022-10-09 21:09:25 +0800"
    },
    "文件后缀": "mp4",
    "标签": {
      "本地路径": [
        "投稿视频",
        "Youtube工程视界",
        "2022"
      ]
    },
    "aid": "561457809",
    "文件名": "【机构动画】夹持器／机器人抓手"
  },
  "473620505": {
    "cid": "854066851",
    "bvid": "BV1JT411K7TY",
    "链接": "https://www.bilibili.com/video/BV1JT411K7TY",
    "标题": "【航空史】（双语字幕）为什么美国的超音速客机没能实现？美国版的协和号客机波音2707",
    "持续时长": 640,
    "作者": "Youtube工程视界",
    "作者唯一编码": 110752617,
    "发布时间": {
      "数字": 1665054600,
      "字符串": "2022-10-06 19:10:00 +0800"
    },
    "文件后缀": "flv",
    "标签": {
      "本地路径": [
        "投稿视频",
        "Youtube工程视界",
        "2022"
      ]
    },
    "aid": "473620505",
    "文件名": "【航空史】（双语字幕）为什么美国的超音速客机没能实现？美国版的协和号客机波音2707"
  },
  "430930435": {
    "cid": "845238936",
    "bvid": "BV1yG411g7bq",
    "链接": "https://www.bilibili.com/video/BV1yG411g7bq",
    "标题": "【3D动画】坦克是如何工作的？（双语字幕）",
    "持续时长": 574,
    "作者": "Youtube工程视界",
    "作者唯一编码": 110752617,
    "发布时间": {
      "数字": 1664882940,
      "字符串": "2022-10-04 19:29:00 +0800"
    },
    "文件后缀": "flv",
    "标签": {
      "本地路径": [
        "投稿视频",
        "Youtube工程视界",
        "2022"
      ]
    },
    "aid": "430930435",
    "文件名": "【3D动画】坦克是如何工作的？（双语字幕）"
  },
  "473434172": {
    "cid": "851716551",
    "bvid": "BV1hT411N7L7",
    "链接": "https://www.bilibili.com/video/BV1hT411N7L7",
    "标题": "【3D动画】国际空间站是如何建造和运转的？（双语字幕）",
    "持续时长": 550,
    "作者": "Youtube工程视界",
    "作者唯一编码": 110752617,
    "发布时间": {
      "数字": 1664711580,
      "字符串": "2022-10-02 19:53:00 +0800"
    },
    "文件后缀": "flv",
    "标签": {
      "本地路径": [
        "投稿视频",
        "Youtube工程视界",
        "2022"
      ]
    },
    "aid": "473434172",
    "文件名": "【3D动画】国际空间站是如何建造和运转的？（双语字幕）"
  },
  "558413742": {
    "cid": "845113575",
    "bvid": "BV19e4y167TT",
    "链接": "https://www.bilibili.com/video/BV19e4y167TT",
    "标题": "太阳系到底有多大？星体大小和距离比较",
    "持续时长": 104,
    "作者": "Youtube工程视界",
    "作者唯一编码": 110752617,
    "发布时间": {
      "数字": 1664538660,
      "字符串": "2022-09-30 19:51:00 +0800"
    },
    "文件后缀": "flv",
    "标签": {
      "本地路径": [
        "投稿视频",
        "Youtube工程视界",
        "2022"
      ]
    },
    "aid": "558413742",
    "文件名": "太阳系到底有多大？星体大小和距离比较"
  },
  "688560013": {
    "cid": "846502068",
    "bvid": "BV1R24y1R7kY",
    "链接": "https://www.bilibili.com/video/BV1R24y1R7kY",
    "标题": "【3D动画】2分钟看懂离心式压缩机工作原理！",
    "持续时长": 122,
    "作者": "Youtube工程视界",
    "作者唯一编码": 110752617,
    "发布时间": {
      "数字": 1664531520,
      "字符串": "2022-09-30 17:52:00 +0800"
    },
    "文件后缀": "flv",
    "标签": {
      "本地路径": [
        "投稿视频",
        "Youtube工程视界",
        "2022"
      ]
    },
    "aid": "688560013",
    "文件名": "【3D动画】2分钟看懂离心式压缩机工作原理！"
  },
  "858581215": {
    "cid": "846168795",
    "bvid": "BV1HV4y1N7Fs",
    "链接": "https://www.bilibili.com/video/BV1HV4y1N7Fs",
    "标题": "【3D动画】摩托车发动机工作动画",
    "持续时长": 55,
    "作者": "Youtube工程视界",
    "作者唯一编码": 110752617,
    "发布时间": {
      "数字": 1664450100,
      "字符串": "2022-09-29 19:15:00 +0800"
    },
    "文件后缀": "flv",
    "标签": {
      "本地路径": [
        "投稿视频",
        "Youtube工程视界",
        "2022"
      ]
    },
    "aid": "858581215",
    "文件名": "【3D动画】摩托车发动机工作动画"
  },
  "688462884": {
    "cid": "845107457",
    "bvid": "BV1W24y1R7kc",
    "链接": "https://www.bilibili.com/video/BV1W24y1R7kc",
    "标题": "【3D动画】航天飞机是如何工作的？（双语字幕）",
    "持续时长": 755,
    "作者": "Youtube工程视界",
    "作者唯一编码": 110752617,
    "发布时间": {
      "数字": 1664365440,
      "字符串": "2022-09-28 19:44:00 +0800"
    },
    "文件后缀": "flv",
    "标签": {
      "本地路径": [
        "投稿视频",
        "Youtube工程视界",
        "2022"
      ]
    },
    "aid": "688462884",
    "文件名": "【3D动画】航天飞机是如何工作的？（双语字幕）"
  },
  "985919800": {
    "cid": "844092478",
    "bvid": "BV1Yt4y1P7ZA",
    "链接": "https://www.bilibili.com/video/BV1Yt4y1P7ZA",
    "标题": "【3D动画】航空发动机工作过程（双语字幕）",
    "持续时长": 77,
    "作者": "Youtube工程视界",
    "作者唯一编码": 110752617,
    "发布时间": {
      "数字": 1664191927,
      "字符串": "2022-09-26 19:32:07 +0800"
    },
    "文件后缀": "flv",
    "标签": {
      "本地路径": [
        "投稿视频",
        "Youtube工程视界",
        "2022"
      ]
    },
    "aid": "985919800",
    "文件名": "【3D动画】航空发动机工作过程（双语字幕）"
  },
  "429931858": {
    "cid": "815294194",
    "bvid": "BV1DG411V77A",
    "链接": "https://www.bilibili.com/video/BV1DG411V77A",
    "标题": "3分钟了解航空发动机工作过程（双语字幕）",
    "持续时长": 202,
    "作者": "Youtube工程视界",
    "作者唯一编码": 110752617,
    "发布时间": {
      "数字": 1661515534,
      "字符串": "2022-08-26 20:05:34 +0800"
    },
    "文件后缀": "flv",
    "标签": {
      "本地路径": [
        "投稿视频",
        "Youtube工程视界",
        "2022"
      ]
    },
    "aid": "429931858",
    "文件名": "3分钟了解航空发动机工作过程（双语字幕）"
  },
  "302380518": {
    "cid": "815264219",
    "bvid": "BV1yP41157zB",
    "链接": "https://www.bilibili.com/video/BV1yP41157zB",
    "标题": "1分钟了解燃气轮机工作原理！",
    "持续时长": 67,
    "作者": "Youtube工程视界",
    "作者唯一编码": 110752617,
    "发布时间": {
      "数字": 1661512762,
      "字符串": "2022-08-26 19:19:22 +0800"
    },
    "文件后缀": "flv",
    "标签": {
      "本地路径": [
        "投稿视频",
        "Youtube工程视界",
        "2022"
      ]
    },
    "aid": "302380518",
    "文件名": "1分钟了解燃气轮机工作原理！"
  },
  "899630560": {
    "cid": "807923468",
    "bvid": "BV1nN4y1V7CU",
    "链接": "https://www.bilibili.com/video/BV1nN4y1V7CU",
    "标题": "3分钟了解航空发动机工作原理",
    "持续时长": 217,
    "作者": "Youtube工程视界",
    "作者唯一编码": 110752617,
    "发布时间": {
      "数字": 1660828764,
      "字符串": "2022-08-18 21:19:24 +0800"
    },
    "文件后缀": "flv",
    "标签": {
      "本地路径": [
        "投稿视频",
        "Youtube工程视界",
        "2022"
      ]
    },
    "aid": "899630560",
    "文件名": "3分钟了解航空发动机工作原理"
  },
  "772073870": {
    "cid": "806401090",
    "bvid": "BV1a14y147jk",
    "链接": "https://www.bilibili.com/video/BV1a14y147jk",
    "标题": "2分钟了解双管式换热器",
    "持续时长": 104,
    "作者": "Youtube工程视界",
    "作者唯一编码": 110752617,
    "发布时间": {
      "数字": 1660732660,
      "字符串": "2022-08-17 18:37:40 +0800"
    },
    "文件后缀": "flv",
    "标签": {
      "本地路径": [
        "投稿视频",
        "Youtube工程视界",
        "2022"
      ]
    },
    "aid": "772073870",
    "文件名": "2分钟了解双管式换热器"
  },
  "328530680": {
    "cid": "203898227",
    "bvid": "BV1mA411v7Fy",
    "链接": "https://www.bilibili.com/video/BV1mA411v7Fy",
    "标题": "【超能陆战队/高燃踩点】耗时72小时爆肝混剪，你还记得大白吗？",
    "持续时长": 192,
    "作者": "Youtube工程视界",
    "作者唯一编码": 110752617,
    "发布时间": {
      "数字": 1592640661,
      "字符串": "2020-06-20 16:11:01 +0800"
    },
    "文件后缀": "mp4",
    "标签": {
      "本地路径": [
        "投稿视频",
        "Youtube工程视界",
        "2020"
      ]
    },
    "aid": "328530680",
    "文件名": "【超能陆战队／高燃踩点】耗时72小时爆肝混剪，你还记得大白吗？"
  },
  "668533994": {
    "cid": "203902147",
    "bvid": "BV1pa4y1Y7y3",
    "链接": "https://www.bilibili.com/video/BV1pa4y1Y7y3",
    "标题": "【假面骑士/高燃混剪】变身才是男人的浪漫！",
    "持续时长": 221,
    "作者": "Youtube工程视界",
    "作者唯一编码": 110752617,
    "发布时间": {
      "数字": 1592159555,
      "字符串": "2020-06-15 02:32:35 +0800"
    },
    "文件后缀": "mp4",
    "标签": {
      "本地路径": [
        "投稿视频",
        "Youtube工程视界",
        "2020"
      ]
    },
    "aid": "668533994",
    "文件名": "【假面骑士／高燃混剪】变身才是男人的浪漫！"
  }
}